{
  "versionLabel": "1-0-0",
  "agentInfo": {
    "languageCode": "en-US",
    "projectId": "digital-advisor-221313",
    "voiceName": "male_1"
  },
  "actions": [
    {
      "initialTrigger": {
        "intent": "assistant.intent.action.MAIN"
      },
      "httpExecution": {
        "url": "https://digital-advisor-221313.appspot.com/webhook"
      }
    }
  ]
}